final/ISA_1/isim_test11.txt
ISim log file
Running: D:\zzzzFROM OLD\SCHOOL\3 - FALL2018\CECS440\PROJECTS\ISA_1\ISA_1\TopLevel_ISA1_tb_isim_beh.exe -intstyle ise -gui -tclbatch isim.cmd -wdb D:/zzzzFROM OLD/SCHOOL/3 - FALL2018/CECS440/PROJECTS/ISA_1/ISA_1/TopLevel_ISA1_tb_isim_beh.wdb 
ISim P.20131013 (signature 0x7708f090)
WARNING: A WEBPACK license was found.
WARNING: Please use Xilinx License Configuration Manager to check out a full ISim license.
WARNING: ISim will run in Lite mode. Please refer to the ISim documentation for more information on the differences between the Lite and the Full version.
This is a Lite version of ISim.
Time resolution is 1 ps
# onerror resume
# wave add /
# run 1000 ns
Simulator is doing circuit initialization process.
Finished circuit initialization process.
 
 
******************************************************************
           CECS 440 - MIPS ISA Control Unit (x Test)              
******************************************************************
 
# run 1.00us
BREAK INSTRUCTION FETCHED 1980.0 ps
 R E G I S T E R ' S   A F T E R   B R E A K
 
t=1990.0 ps, $r0 = 0x00000000  ||   $r16 = 0xxxxxxxxx
t=2000.0 ps, $r1 = 0xffffff8a  ||   $r17 = 0xxxxxxxxx
t=2010.0 ps, $r2 = 0x0000008a  ||   $r18 = 0xxxxxxxxx
t=2020.0 ps, $r3 = 0x00000000  ||   $r19 = 0xxxxxxxxx
t=2030.0 ps, $r4 = 0x000000c0  ||   $r20 = 0xxxxxxxxx
t=2040.0 ps, $r5 = 0x000000c4  ||   $r21 = 0xxxxxxxxx
t=2050.0 ps, $r6 = 0x000000d4  ||   $r22 = 0xxxxxxxxx
t=2060.0 ps, $r7 = 0x0000f0f0  ||   $r23 = 0xxxxxxxxx
t=2070.0 ps, $r8 = 0x00000000  ||   $r24 = 0xxxxxxxxx
t=2080.0 ps, $r9 = 0xffffffff  ||   $r25 = 0xxxxxxxxx
t=2090.0 ps, $r10 = 0x0000f0f0  ||   $r26 = 0xxxxxxxxx
t=2100.0 ps, $r11 = 0xffffffff  ||   $r27 = 0xxxxxxxxx
t=2110.0 ps, $r12 = 0xfffffaf5  ||   $r28 = 0xxxxxxxxx
t=2120.0 ps, $r13 = 0xffff5555  ||   $r29 = 0x000003fc
t=2130.0 ps, $r14 = 0x00000000  ||   $r30 = 0xxxxxxxxx
t=2140.0 ps, $r15 = 0x100100c0  ||   $r31 = 0x00000014
 
Memory Locations 0xC0 to 0xFF
t=2150.0 ps, M[000000c0] = 0x000000c0
t=2160.0 ps, M[000000c4] = 0x000000c4
t=2170.0 ps, M[000000c8] = 0x000000c8
t=2180.0 ps, M[000000cc] = 0x000000cc
t=2190.0 ps, M[000000d0] = 0x000000d0
t=2200.0 ps, M[000000d4] = 0x000000d4
t=2210.0 ps, M[000000d8] = 0xffffff8a
t=2220.0 ps, M[000000dc] = 0xxxxxxxxx
t=2230.0 ps, M[000000e0] = 0xxxxxxxxx
t=2240.0 ps, M[000000e4] = 0xxxxxxxxx
t=2250.0 ps, M[000000e8] = 0xxxxxxxxx
t=2260.0 ps, M[000000ec] = 0xxxxxxxxx
t=2270.0 ps, M[000000f0] = 0xxxxxxxxx
t=2280.0 ps, M[000000f4] = 0xxxxxxxxx
t=2290.0 ps, M[000000f8] = 0xxxxxxxxx
t=2300.0 ps, M[000000fc] = 0xxxxxxxxx
t=2310.0 ps, PC = 0x00000064,   IR = 0x0000000d
 
Stopped at time : 2310 ns : File "D:/zzzzFROM OLD/SCHOOL/3 - FALL2018/CECS440/PROJECTS/ISA_1/ISA_1/MCU.v" Line 289
