final/ISA_1/isim_test6.txt
ISim log file
Running: D:\zzzzFROM OLD\SCHOOL\3 - FALL2018\CECS440\PROJECTS\ISA_1\ISA_1\TopLevel_ISA1_tb_isim_beh.exe -intstyle ise -gui -tclbatch isim.cmd -wdb D:/zzzzFROM OLD/SCHOOL/3 - FALL2018/CECS440/PROJECTS/ISA_1/ISA_1/TopLevel_ISA1_tb_isim_beh.wdb 
ISim P.20131013 (signature 0x7708f090)
WARNING: A WEBPACK license was found.
WARNING: Please use Xilinx License Configuration Manager to check out a full ISim license.
WARNING: ISim will run in Lite mode. Please refer to the ISim documentation for more information on the differences between the Lite and the Full version.
This is a Lite version of ISim.
Time resolution is 1 ps
# onerror resume
# wave add /
# run 1000 ns
Simulator is doing circuit initialization process.
Finished circuit initialization process.
 
 
******************************************************************
           CECS 440 - MIPS ISA Control Unit (x Test)              
******************************************************************
 
# run 1.00us
# run 1.00us
# run 1.00us
# run 1.00us
BREAK INSTRUCTION FETCHED 4940.0 ps
 R E G I S T E R ' S   A F T E R   B R E A K
 
t=4950.0 ps, $r0 = 0x00000000  ||   $r16 = 0xxxxxxxxx
t=4960.0 ps, $r1 = 0x12345678  ||   $r17 = 0x000075cc
t=4970.0 ps, $r2 = 0x89abcdef  ||   $r18 = 0xxxxxxxxx
t=4980.0 ps, $r3 = 0xa5a5a5a5  ||   $r19 = 0xxxxxxxxx
t=4990.0 ps, $r4 = 0x5a5a5a5a  ||   $r20 = 0xxxxxxxxx
t=5000.0 ps, $r5 = 0x2468ace0  ||   $r21 = 0xxxxxxxxx
# run 1.00us
t=5010.0 ps, $r6 = 0x13579bdf  ||   $r22 = 0xxxxxxxxx
t=5020.0 ps, $r7 = 0x0f0f0f0f  ||   $r23 = 0xxxxxxxxx
t=5030.0 ps, $r8 = 0xf0f0f0f0  ||   $r24 = 0xxxxxxxxx
t=5040.0 ps, $r9 = 0x00000009  ||   $r25 = 0xxxxxxxxx
t=5050.0 ps, $r10 = 0x0000000a  ||   $r26 = 0xxxxxxxxx
t=5060.0 ps, $r11 = 0x0000000b  ||   $r27 = 0xxxxxxxxx
t=5070.0 ps, $r12 = 0x0000000c  ||   $r28 = 0xxxxxxxxx
t=5080.0 ps, $r13 = 0x00000000  ||   $r29 = 0x000003fc
t=5090.0 ps, $r14 = 0x10010100  ||   $r30 = 0xxxxxxxxx
t=5100.0 ps, $r15 = 0x10010040  ||   $r31 = 0x00000000
 
Memory Locations 0xC0 to 0xFF
t=5110.0 ps, M[000000c0] = 0xc3c3c3c3
t=5120.0 ps, M[000000c4] = 0x12345678
t=5130.0 ps, M[000000c8] = 0x89abcdef
t=5140.0 ps, M[000000cc] = 0xa5a5a5a5
t=5150.0 ps, M[000000d0] = 0x5a5a5a5a
t=5160.0 ps, M[000000d4] = 0x2468ace0
t=5170.0 ps, M[000000d8] = 0x13579bdf
t=5180.0 ps, M[000000dc] = 0x0f0f0f0f
t=5190.0 ps, M[000000e0] = 0xf0f0f0f0
t=5200.0 ps, M[000000e4] = 0x00000009
t=5210.0 ps, M[000000e8] = 0x0000000a
t=5220.0 ps, M[000000ec] = 0x0000000b
t=5230.0 ps, M[000000f0] = 0x0000000c
t=5240.0 ps, M[000000f4] = 0x0000000d
t=5250.0 ps, M[000000f8] = 0xfffffff8
t=5260.0 ps, M[000000fc] = 0x000075cc
t=5270.0 ps, PC = 0x00000060,   IR = 0x0000000d
 
Stopped at time : 5270 ns : File "D:/zzzzFROM OLD/SCHOOL/3 - FALL2018/CECS440/PROJECTS/ISA_1/ISA_1/MCU.v" Line 289
